[
    "bower_components/angular/angular.js",
    "bower_components/angular-resource/angular-resource.js",
    "bower_components/angular-animate/angular-animate.js",
    "bower_components/angular-sanitize/angular-sanitize.js",
    "bower_components/angular-ui-router/release/angular-ui-router.js",
    "bower_components/ionic/js/ionic.js",
    "bower_components/ionic/js/ionic-angular.js",
    "bower_components/lodash/lodash.js",
    "bower_components/ngCordova/dist/ng-cordova.js",
    "bower_components/moment/moment.js",
    "bower_components/ng-inheritance/define.js",
    "bower_components/js-data/dist/js-data.js",
    "bower_components/js-data-localstorage/dist/js-data-localstorage.js",
    "bower_components/js-data-angular/dist/js-data-angular.js",
    "bower_components/Chart.js/Chart.js",
    "bower_components/angular-chart.js/dist/angular-chart.js",
    "bower_components/waves/dist/waves.js"
]
